<?xml version="1.0" encoding="UTF-8"?>
<svg width="26px" height="26px" viewBox="0 0 26 26" version="1.1" xmlns="http://www.w3.org/2000/svg" xmlns:xlink="http://www.w3.org/1999/xlink">
    <!-- Generator: Sketch 45.2 (43514) - http://www.bohemiancoding.com/sketch -->
    <title>Combined Shape</title>
    <desc>Created with Sketch.</desc>
    <defs></defs>
    <g id="Page-1" stroke="none" stroke-width="1" fill="none" fill-rule="evenodd">
        <path d="M13.0475116,10.9261912 L2.5,0.378679656 L0.378679656,2.5 L10.9261912,13.0475116 L0.378679656,23.5950231 L2.5,25.7163435 L13.0475116,15.1688319 L23.5950231,25.7163435 L25.7163435,23.5950231 L15.1688319,13.0475116 L25.7163435,2.5 L23.5950231,0.378679656 L13.0475116,10.9261912 Z" id="Combined-Shape" fill="#867F7B" fill-rule="nonzero"></path>
    </g>
</svg>