<?xml version="1.0" encoding="UTF-8"?>
<svg width="17px" height="62px" viewBox="0 0 17 62" version="1.1" xmlns="http://www.w3.org/2000/svg" xmlns:xlink="http://www.w3.org/1999/xlink">
    <!-- Generator: Sketch 45.2 (43514) - http://www.bohemiancoding.com/sketch -->
    <title>Combined Shape</title>
    <desc>Created with Sketch.</desc>
    <defs></defs>
    <g id="Page-1" stroke="none" stroke-width="1" fill="none" fill-rule="evenodd">
        <polygon id="Combined-Shape" stroke="#979797" stroke-width="0.5" fill="#979797" fill-rule="nonzero" points="9.35793001 1.90984473 16.0174909 8.56940562 16.7245977 7.86229884 8.86229884 0 1 7.86229884 1.70710678 8.56940562 8.35796644 1.91854596 8.35796644 60.8833506 9.35794186 60.8763388"></polygon>
    </g>
</svg>